\relax 
\@writefile{toc}{\contentsline {section}{\numberline {1}3D Navier Stokes}{1}}
\@writefile{toc}{\contentsline {section}{\numberline {2}Turbulence}{1}}
\@writefile{toc}{\contentsline {section}{\numberline {3}Lattice Boltzmann Method}{2}}
\@writefile{toc}{\contentsline {section}{\numberline {4}Conclusion}{2}}
